<?xml version="1.0" encoding="utf-8"?>
<COLLADA xmlns="http://www.collada.org/2005/11/COLLADASchema" version="1.4.1" xmlns:xsi="http://www.w3.org/2001/XMLSchema-instance">
  <asset>
    <contributor>
      <author>Blender User</author>
      <authoring_tool>Blender 2.80.75 commit date:2019-07-29, commit time:14:47, hash:f6cb5f54494e</authoring_tool>
    </contributor>
    <created>2019-08-27T22:29:12</created>
    <modified>2019-08-27T22:29:12</modified>
    <unit name="meter" meter="1"/>
    <up_axis>Z_UP</up_axis>
  </asset>
  <library_images/>
  <library_geometries>
    <geometry id="Sphere_001-mesh" name="Sphere.001">
      <mesh>
        <source id="Sphere_001-mesh-positions">
          <float_array id="Sphere_001-mesh-positions-array" count="774">0 0.9999998 0 0.7071068 -2.13513e-7 0.7071065 0 0.7071067 -0.7071068 1 -1.69435e-7 -1.51478e-7 0 0.7071066 0.7071066 0 -2.13146e-7 0.9999998 -0.7071068 -0.707107 -2.68272e-7 0 -1 -2.11083e-7 0.7071068 -0.707107 -1.83978e-7 0 -1.25724e-7 -1 0 -0.707107 -0.7071068 -1 0 -2.70687e-7 0 -0.707107 0.7071065 0.7071068 0.7071066 0 0.7071068 -1.51695e-7 -0.7071068 -0.7071068 0 0.7071065 -0.7071068 0 -0.707107 -0.7071067 0.7071067 -1.83978e-7 0.3826835 -2.18965e-7 0.9238795 0 0.9238795 -0.3826835 0 0.3826833 0.9238795 0.3826835 0.9238795 0 0.4082483 0.8164964 0.4082482 -0.3826835 -0.9238798 -2.44303e-7 0 -0.9238798 0.3826831 0.9238796 -0.3826836 -1.66426e-7 0 -0.3826836 -0.9238798 0.4082483 0.8164966 -0.4082483 0.3826834 -0.9238798 -1.98684e-7 0.4082483 0.4082482 -0.8164967 0 -0.9238798 -0.3826836 0 -0.3826837 0.9238793 0.8164967 0.4082482 -0.4082484 -0.9238796 -0.3826835 -2.76561e-7 -0.3826835 0.9238795 -1.34168e-7 -0.9238795 0 -0.3826836 0.9238796 0.3826833 -1.20807e-7 0 0.9238795 0.3826833 0 0.3826833 -0.9238797 0.9238796 -1.95308e-7 0.3826833 0.3826835 -1.38196e-7 -0.9238798 -0.3826835 -1.52054e-7 0.9238793 -0.9238796 0 0.3826831 -0.3826835 0 -0.9238798 -0.9238795 0.3826833 -2.30941e-7 0.9238796 -1.61853e-7 -0.3826836 0.4082483 0.4082481 0.8164964 0.8164966 0.4082481 0.4082482 -0.4082483 0.8164964 0.4082481 -0.8164966 0.4082482 0.408248 -0.4082483 0.4082482 0.8164964 -0.8164967 -0.4082484 0.408248 -0.4082483 -0.8164969 0.408248 -0.4082484 -0.4082485 0.8164964 -0.8164967 -0.4082483 -0.4082485 -0.4082483 -0.4082484 -0.8164967 -0.4082483 -0.8164967 -0.4082485 0.4082482 -0.8164969 0.408248 0.8164966 -0.4082485 0.4082481 0.4082483 -0.4082486 0.8164964 0.4082483 -0.8164967 -0.4082484 0.4082483 -0.4082485 -0.8164967 0.8164966 -0.4082484 -0.4082484 -0.4082483 0.8164966 -0.4082483 -0.4082483 0.4082483 -0.8164967 -0.8164966 0.4082482 -0.4082484 0.5555703 -2.174e-7 0.8314694 0 0.8314696 -0.5555703 0 0.5555701 0.8314694 0.1950903 0.9807852 0 0.5773503 0.788675 0.2113248 -0.5555703 -0.8314698 -2.57942e-7 0 -0.9807855 0.1950901 0.8314696 -0.5555704 -1.75268e-7 0 -0.1950905 -0.9807855 0.2113249 0.7886751 -0.5773503 0.1950902 -0.9807855 -2.0553e-7 0.2113249 0.5773503 -0.7886751 0 -0.8314699 -0.5555703 0 -0.5555706 0.8314694 0.7886751 0.5773501 -0.2113249 -0.9807854 -0.1950904 -2.75618e-7 -0.5555701 0.8314696 -1.58823e-7 -0.8314696 0 -0.5555705 0.8314696 0.5555701 0 0 0.9807852 0.1950902 0 0.1950902 -0.9807855 0.9807854 -1.8287e-7 0.1950901 0.1950903 -1.31471e-7 -0.9807855 -0.5555703 -1.20261e-7 0.8314694 -0.9807854 0 0.19509 -0.1950903 0 -0.9807855 -0.9807853 0.1950902 -2.52361e-7 0.8314698 -1.56771e-7 -0.5555703 0.5773503 0.2113246 0.7886749 0.7886751 0.2113246 0.5773501 -0.2113248 0.7886749 0.5773501 -0.7886751 0.2113248 0.57735 -0.5773504 0.2113248 0.7886748 -0.7886753 -0.2113249 0.57735 -0.2113249 -0.7886753 0.57735 -0.2113249 -0.5773506 0.7886748 -0.7886751 -0.5773504 -0.2113251 -0.2113249 -0.5773504 -0.7886753 -0.2113249 -0.7886753 -0.5773504 0.2113248 -0.7886754 0.57735 0.7886751 -0.2113251 0.57735 0.5773503 -0.2113251 0.7886749 0.5773503 -0.7886753 -0.211325 0.5773503 -0.211325 -0.7886753 0.7886751 -0.211325 -0.5773504 -0.5773502 0.788675 -0.2113249 -0.5773503 0.2113248 -0.7886753 -0.7886751 0.2113248 -0.5773504 0.1950903 -2.17214e-7 0.9807852 0 0.9807852 -0.1950904 0 0.1950901 0.9807852 0.5555703 0.8314694 0 0.2113248 0.788675 0.5773501 -0.1950904 -0.9807855 -2.28787e-7 0 -0.8314699 0.5555699 0.9807854 -0.1950905 -1.58699e-7 0 -0.5555705 -0.8314698 0.5773503 0.788675 -0.2113249 0.5555702 -0.8314698 -1.91712e-7 0.5773503 0.2113248 -0.7886753 0 -0.9807855 -0.1950905 0 -0.1950905 0.9807852 0.7886751 0.2113247 -0.5773504 -0.8314697 -0.5555704 -2.74386e-7 -0.1950903 0.9807852 0 -0.9807854 0 -0.1950905 0.9807854 0.1950901 -1.35442e-7 0 0.8314694 0.5555701 0 0.5555701 -0.8314697 0.8314698 -2.05341e-7 0.55557 0.5555703 -1.44711e-7 -0.8314698 -0.1950903 -1.83103e-7 0.9807852 -0.8314698 0 0.5555699 -0.5555703 0 -0.8314698 -0.8314695 0.5555701 -2.08157e-7 0.9807854 -1.65815e-7 -0.1950905 0.2113249 0.5773501 0.788675 0.7886751 0.5773501 0.2113247 -0.5773503 0.788675 0.2113247 -0.7886751 0.5773501 0.2113246 -0.2113249 0.5773501 0.788675 -0.7886751 -0.5773504 0.2113245 -0.5773503 -0.7886753 0.2113245 -0.5773504 -0.211325 0.7886748 -0.7886751 -0.2113249 -0.5773504 -0.5773503 -0.2113249 -0.7886753 -0.5773503 -0.7886753 -0.2113251 0.5773502 -0.7886753 0.2113246 0.7886751 -0.5773504 0.2113246 0.2113248 -0.5773506 0.7886748 0.2113248 -0.7886753 -0.5773504 0.2113248 -0.5773505 -0.7886753 0.7886751 -0.5773504 -0.2113251 -0.2113248 0.7886751 -0.5773503 -0.2113248 0.5773503 -0.7886751 -0.7886751 0.5773503 -0.211325 -0.89032 0.404615 -0.2088468 -0.8903201 0.2088465 -0.4046152 -0.9596829 0.1987568 -0.198757 -0.6396021 0.639602 -0.4264015 -0.4264013 0.6396021 -0.6396023 -0.6396021 0.4264014 -0.6396023 -0.1987568 0.9596828 -0.1987569 -0.2088465 0.89032 -0.4046151 -0.404615 0.89032 -0.2088467 0.8903201 -0.4046152 -0.2088468 0.8903201 -0.2088468 -0.4046152 0.959683 -0.198757 -0.198757 0.6396021 -0.6396023 -0.4264016 0.4264014 -0.6396023 -0.6396023 0.6396021 -0.4264016 -0.6396023 0.1987568 -0.9596831 -0.198757 0.2088465 -0.8903203 -0.4046152 0.404615 -0.8903203 -0.2088468 0.2088465 -0.4046154 0.8903198 0.4046151 -0.2088468 0.89032 0.1987568 -0.1987571 0.9596828 0.4264013 -0.6396024 0.639602 0.6396021 -0.6396023 0.4264012 0.6396021 -0.4264017 0.639602 0.1987568 -0.9596831 0.1987566 0.404615 -0.8903203 0.2088463 0.2088465 -0.8903203 0.4046148 -0.4046151 -0.8903202 -0.2088468 -0.2088466 -0.8903202 -0.4046152 -0.1987569 -0.9596831 -0.198757 -0.6396021 -0.6396023 -0.4264016 -0.6396021 -0.4264015 -0.6396023 -0.4264014 -0.6396023 -0.6396023 -0.959683 -0.1987569 -0.1987571 -0.8903201 -0.2088466 -0.4046153 -0.8903201 -0.4046151 -0.2088468 -0.4046151 -0.2088468 0.89032 -0.2088467 -0.4046153 0.8903198 -0.1987569 -0.198757 0.9596828 -0.6396023 -0.4264016 0.6396018 -0.6396022 -0.6396023 0.4264011 -0.4264014 -0.6396023 0.6396018 -0.9596831 -0.1987569 0.1987566 -0.8903201 -0.4046151 0.2088463 -0.8903201 -0.2088467 0.4046148 0.4046151 0.2088465 -0.8903203 0.1987568 0.1987567 -0.9596831 0.2088466 0.4046149 -0.8903203 0.6396021 0.639602 -0.4264015 0.6396022 0.4264013 -0.6396023 0.4264014 0.639602 -0.6396023 0.1987568 0.9596828 0.1987567 0.2088466 0.89032 0.4046149 0.4046151 0.89032 0.2088465 0.959683 0.1987566 -0.1987569 0.8903201 0.2088464 -0.4046152 0.8903201 0.4046149 -0.2088467 0.2088466 0.4046148 0.89032 0.1987568 0.1987566 0.9596828 0.4046151 0.2088464 0.89032 0.6396021 0.639602 0.4264013 0.4264014 0.639602 0.639602 0.6396021 0.4264012 0.639602 0.8903201 0.4046148 0.2088465 0.8903201 0.2088464 0.4046149 0.959683 0.1987566 0.1987567 -0.8903201 0.4046149 0.2088463 -0.959683 0.1987568 0.1987566 -0.8903201 0.2088465 0.4046148 -0.404615 -0.8903203 0.2088463 -0.1987569 -0.9596831 0.1987566 -0.2088466 -0.8903203 0.4046147 -0.1987568 0.9596828 0.1987566 -0.4046151 0.89032 0.2088464 -0.2088466 0.89032 0.4046149 -0.4264014 0.639602 0.639602 -0.6396021 0.639602 0.4264012 -0.6396022 0.4264013 0.639602 -0.4046151 -0.2088467 -0.8903203 -0.1987568 -0.1987569 -0.9596831 -0.2088466 -0.4046152 -0.8903203 0.8903201 -0.4046152 0.2088464 0.959683 -0.198757 0.1987566 0.8903201 -0.2088468 0.4046149 -0.2088466 0.4046149 0.89032 -0.4046151 0.2088465 0.89032 -0.1987568 0.1987567 0.9596828 0.404615 0.89032 -0.2088466 0.2088466 0.89032 -0.4046151 0.1987568 0.9596828 -0.1987569 0.2088465 -0.4046152 -0.8903203 0.1987568 -0.1987569 -0.9596831 0.4046151 -0.2088468 -0.8903203 -0.2088465 0.4046149 -0.8903202 -0.1987568 0.1987567 -0.9596831 -0.4046151 0.2088465 -0.8903203</float_array>
          <technique_common>
            <accessor source="#Sphere_001-mesh-positions-array" count="258" stride="3">
              <param name="X" type="float"/>
              <param name="Y" type="float"/>
              <param name="Z" type="float"/>
            </accessor>
          </technique_common>
        </source>
        <source id="Sphere_001-mesh-normals">
          <float_array id="Sphere_001-mesh-normals-array" count="774">0 0 -1 -0.1941835 0 -0.9809653 0 0.1941835 -0.9809652 0.1941835 0 -0.9809653 -2.01179e-7 -0.1941834 -0.9809653 0 0.7071068 -0.7071068 0 0.8323391 -0.5542669 0.2210645 0.7770673 -0.5893191 -0.7071068 1.34059e-7 0.7071068 -0.5542669 0 0.8323391 -0.5893194 0.2210646 0.777067 1 0 0 0.9809653 0 0.1941835 0.9809653 -0.1941831 0 -0.7071068 0.7071068 0 -0.7770671 0.5893192 0.2210646 -0.5893192 0.7770672 0.2210649 -0.5542669 0.8323391 -2.49351e-7 0 -1 0 0 -0.9809652 0.1941835 -0.1941835 -0.9809653 0 -1 3.18018e-7 0 -0.9809653 0 0.1941834 -0.9809652 0.1941836 -2.31295e-7 0.7071068 0 0.7071068 0.8323389 -1.3371e-7 0.5542671 0.777067 0.2210647 0.5893194 -1.2802e-7 0.7071069 0.7071068 0.2210646 0.5893191 0.7770673 0.2210646 0.7770672 0.5893192 0 0 1 0.1941832 0 0.9809653 0 0.1941833 0.9809653 0.7071069 0 -0.7071067 0.7770671 0.2210645 -0.5893194 0.8323388 1.92735e-7 -0.5542672 -1.7828e-7 0.8323389 0.5542673 0.5893193 0.2210646 -0.7770671 -0.7071068 -0.7071069 0 -0.7770671 -0.5893194 0.2210645 -0.832339 -0.554267 -1.20459e-7 -0.5893193 -0.7770672 0.2210645 -1.5459e-7 -0.7071068 0.7071068 0 -0.5542671 0.8323389 -0.2210647 -0.5893194 0.777067 -0.7071068 2.22224e-7 -0.7071069 -0.777067 -0.2210646 -0.5893194 -0.8323389 0 -0.5542672 -0.5893194 -0.2210645 -0.7770672 -1.48552e-7 -0.7071069 -0.7071067 0 -0.8323391 -0.5542669 -0.2210648 -0.7770669 -0.5893194 0.7071068 -0.7071068 0 0.5893192 -0.7770673 0.2210646 0.5542671 -0.8323389 0 0.7770672 -0.5893194 0.2210646 0.5542673 -1.39733e-7 0.8323389 0.5893195 -0.2210646 0.777067 0.2210647 -0.7770673 -0.5893191 0.2210646 -0.5893194 -0.7770671 0.777067 -0.2210647 -0.5893194 -0.2210645 0.7770673 -0.5893192 -0.2210645 0.5893192 -0.7770672 -0.777067 0.2210648 -0.5893194 -0.8046657 0.4198293 -0.4198293 -0.891952 0.4007315 -0.2093704 -0.7770671 0.5893194 -0.2210646 -0.891952 0.2093704 -0.4007313 -0.9248693 0 -0.3802854 -0.9809653 4.33679e-7 -0.1941837 -0.958729 0.2010459 -0.2010456 -0.4198291 0.8046659 -0.419829 -0.6369903 0.6369904 -0.4341506 -0.5893191 0.7770673 -0.2210648 -0.4341507 0.6369903 -0.6369903 -0.419829 0.4198293 -0.8046658 -0.5893192 0.2210647 -0.7770672 -0.6369902 0.4341508 -0.6369903 0 0.9248693 -0.3802852 -0.2010456 0.958729 -0.2010456 0 0.9809653 -0.1941833 -0.2093704 0.891952 -0.4007313 -0.4007314 0.891952 -0.2093708 0.8046656 -0.4198293 -0.4198293 0.891952 -0.4007316 -0.2093706 0.7770671 -0.5893192 -0.2210647 0.891952 -0.2093706 -0.4007315 0.9248692 1.75918e-7 -0.3802853 0.9809653 0 -0.1941835 0.958729 -0.2010455 -0.2010456 0.4198293 -0.8046658 -0.4198293 0.6369903 -0.6369904 -0.4341506 0.5893191 -0.7770673 -0.2210646 0.4341506 -0.6369903 -0.6369903 0.4198291 -0.4198292 -0.8046658 0.5893192 -0.2210648 -0.7770671 0.6369902 -0.4341507 -0.6369903 0 -0.9248692 -0.3802853 0.2010456 -0.958729 -0.201046 0 -0.9809653 -0.1941836 0.2093707 -0.891952 -0.4007313 0.4007313 -0.891952 -0.2093708 0.4198293 -0.4198293 0.8046657 0.2093704 -0.4007318 0.8919519 0.2210644 -0.5893194 0.7770671 0.4007317 -0.2093707 0.8919519 0.3802856 0 0.9248692 0.2010455 -0.2010459 0.958729 0.4198291 -0.8046661 0.4198288 0.4341506 -0.6369904 0.6369903 0.2210645 -0.7770674 0.589319 0.6369903 -0.6369904 0.4341506 0.8046658 -0.4198294 0.4198292 0.7770671 -0.2210647 0.5893192 0.6369904 -0.4341507 0.6369903 0.3802855 -0.9248692 0 0.2010456 -0.9587289 0.201046 0.1941833 -0.9809653 0 0.4007314 -0.8919521 0.2093704 0.2093704 -0.8919522 0.4007312 -0.4198292 -0.8046657 -0.4198293 -0.4007315 -0.891952 -0.2093708 -0.5893192 -0.7770671 -0.2210648 -0.2093707 -0.8919519 -0.4007315 -0.2010458 -0.958729 -0.2010456 -0.8046658 -0.4198291 -0.4198291 -0.6369903 -0.6369903 -0.4341507 -0.7770671 -0.5893193 -0.2210646 -0.6369902 -0.4341508 -0.6369904 -0.4198293 -0.4198292 -0.8046657 -0.2210649 -0.5893192 -0.7770671 -0.4341507 -0.6369902 -0.6369903 -0.958729 -0.2010458 -0.2010457 -0.891952 -0.2093704 -0.4007315 -0.8919521 -0.4007312 -0.2093704 -0.4198291 -0.4198293 0.8046657 -0.4007316 -0.2093705 0.891952 -0.5893196 -0.2210646 0.777067 -0.2093704 -0.4007315 0.891952 0 -0.3802856 0.9248691 0 -0.1941837 0.9809653 -0.2010459 -0.2010458 0.9587289 -0.8046658 -0.4198293 0.4198288 -0.6369904 -0.4341508 0.6369901 -0.7770673 -0.2210646 0.5893191 -0.6369904 -0.6369904 0.4341505 -0.4198291 -0.804666 0.4198289 -0.2210646 -0.7770672 0.5893192 -0.4341507 -0.6369904 0.6369902 -0.9248693 -0.3802852 -1.36156e-7 -0.958729 -0.2010453 0.2010456 -0.9809653 -0.1941835 -1.25285e-7 -0.891952 -0.4007315 0.2093704 -0.8919521 -0.2093703 0.4007313 0.3802851 0 -0.9248694 0.4007313 0.2093706 -0.891952 0.5542671 0 -0.8323389 0.2010459 0.2010457 -0.958729 0 0.3802856 -0.9248691 0 0.554267 -0.8323389 0.2093707 0.4007316 -0.8919519 0.8046658 0.4198291 -0.4198291 0.6369903 0.6369903 -0.4341505 0.7770671 0.5893194 -0.2210645 0.6369903 0.4341507 -0.6369903 0.4198291 0.4198293 -0.8046657 0.2210644 0.5893194 -0.7770671 0.4341507 0.6369903 -0.6369903 0 0.9248692 0.3802856 0.2010456 0.9587291 0.2010456 0 0.9809653 0.1941834 0.2093706 0.8919519 0.4007316 0.4198293 0.8046656 0.4198293 0.5893192 0.7770672 0.2210647 0.4007316 0.891952 0.2093706 0.958729 0.2010456 -0.2010456 0.8919521 0.2093706 -0.4007313 0.891952 0.4007314 -0.2093704 1.71098e-7 0.3802855 0.9248692 0.2093707 0.4007314 0.891952 0 0.5542671 0.8323389 0.2010456 0.2010457 0.9587291 0.4007318 0.2093706 0.8919519 0.6369903 0.6369903 0.4341508 0.4341508 0.6369903 0.6369903 0.4198293 0.4198291 0.8046657 0.5893194 0.2210646 0.777067 0.6369903 0.4341508 0.6369903 0.8046657 0.4198291 0.4198293 0.891952 0.4007315 0.2093706 0.7770672 0.5893192 0.2210647 0.891952 0.2093704 0.4007315 0.9248694 0 0.3802853 0.958729 0.2010458 0.2010457 -0.9248691 0.3802856 -2.13271e-7 -0.8919519 0.4007317 0.2093705 -0.8323389 0.554267 0 -0.9587291 0.2010456 0.2010455 -0.9248693 0 0.3802853 -0.832339 2.50556e-7 0.5542669 -0.8919519 0.2093706 0.4007316 -0.3802855 -0.9248692 0 -0.4007314 -0.8919522 0.2093702 -0.5542671 -0.8323389 0 -0.2010457 -0.958729 0.2010456 0 -0.9248692 0.3802853 -1.25278e-7 -0.8323392 0.5542668 -0.2093705 -0.891952 0.4007313 -0.3802853 0.9248692 -1.40975e-7 -0.2010456 0.958729 0.2010457 -0.1941834 0.9809653 0 -0.4007314 0.891952 0.2093708 -0.4198293 0.8046658 0.4198294 -0.2210648 0.7770671 0.5893192 -0.2093707 0.8919518 0.4007318 -0.4341506 0.6369905 0.6369902 -0.6369902 0.6369903 0.4341507 -0.8046657 0.4198293 0.4198291 -0.7770671 0.2210646 0.5893192 -0.6369904 0.4341506 0.6369902 -0.380285 0 -0.9248694 -0.4007316 -0.2093706 -0.891952 -0.554267 1.34915e-7 -0.8323389 -0.2010459 -0.2010456 -0.958729 0 -0.3802853 -0.9248692 0 -0.5542673 -0.8323389 -0.2093707 -0.4007314 -0.891952 0.9248692 -0.3802854 0 0.891952 -0.4007315 0.2093705 0.8323389 -0.5542672 0 0.9587291 -0.2010455 0.2010457 0.8919519 -0.2093707 0.4007316 -0.4198293 0.4198293 0.8046657 -0.2093707 0.4007315 0.891952 -0.2210646 0.5893194 0.777067 -0.4007315 0.2093704 0.891952 -0.3802853 0 0.9248692 -0.1941838 0 0.9809651 -0.2010457 0.2010456 0.958729 0.419829 0.8046659 -0.4198291 0.4007313 0.891952 -0.2093705 0.5893194 0.7770671 -0.2210645 0.2093704 0.8919521 -0.4007312 0.2010457 0.9587291 -0.2010456 0.2093706 -0.4007315 -0.891952 0.2010458 -0.2010456 -0.958729 0.4007315 -0.2093706 -0.8919519 -0.2093706 0.4007316 -0.891952 -0.2010458 0.2010458 -0.9587289 -0.4007313 0.2093707 -0.891952 0.1941834 0.9809653 0 0.3802855 0.9248692 -1.86762e-7 0 1 0 0.5542672 0.8323389 0 0.7071069 0.7071068 0 0.9809653 0.1941834 0 0.9248692 0.3802856 0 0.8323389 0.5542672 0</float_array>
          <technique_common>
            <accessor source="#Sphere_001-mesh-normals-array" count="258" stride="3">
              <param name="X" type="float"/>
              <param name="Y" type="float"/>
              <param name="Z" type="float"/>
            </accessor>
          </technique_common>
        </source>
        <source id="Sphere_001-mesh-map-0">
          <float_array id="Sphere_001-mesh-map-0-array" count="3072">0.875 0 0.890625 0.06249994 0.859375 0.0625 0.375 0 0.390625 0.0625 0.359375 0.06249994 0.6875 0.25 0.703125 0.3125 0.671875 0.3125 0.9375 0.75 0.921875 0.8125 0.90625 0.75 0.5 0.5 0.484375 0.5625 0.46875 0.5 0.125 0 0.140625 0.06249994 0.109375 0.06249994 0.875 0.5 0.890625 0.5625 0.859375 0.5625 0.875 0.5 0.859375 0.5625 0.84375 0.5 0.25 0.5 0.234375 0.5625 0.21875 0.5 1 0.5 0.984375 0.5625 0.96875 0.5 0.5625 0.75 0.546875 0.6875 0.578125 0.6875 0.6875 0.75 0.65625 0.75 0.671875 0.6875 0.625 1 0.609375 0.9375 0.640625 0.9375 0.5625 0.25 0.578125 0.3125 0.546875 0.3125 0.6875 0.75 0.671875 0.6875 0.703125 0.6875 0.5625 0.25 0.59375 0.25 0.578125 0.3125 0.625 0 0.640625 0.0625 0.609375 0.0625 0.125 0.5 0.109375 0.5625 0.09375 0.5 0.125 0.5 0.140625 0.5625 0.109375 0.5625 0.1875 0.75 0.171875 0.8125 0.15625 0.75 0.0625 0.25 0.078125 0.3125 0.046875 0.3125 0.0625 0.25 0.09375 0.25 0.078125 0.3125 0.1875 0.25 0.203125 0.3125 0.171875 0.3125 0.375 0.5 0.359375 0.5625 0.34375 0.5 0.375 0.5 0.390625 0.5625 0.359375 0.5625 0.4375 0.75 0.421875 0.8125 0.40625 0.75 0.3125 0.25 0.328125 0.3125 0.296875 0.3125 0.3125 0.25 0.34375 0.25 0.328125 0.3125 0.4375 0.25 0.453125 0.3125 0.421875 0.3125 0.8125 0.25 0.828125 0.3125 0.796875 0.3125 0.8125 0.25 0.84375 0.25 0.828125 0.3125 0.9375 0.25 0.953125 0.3125 0.921875 0.3125 0.90625 0.375 0.921875 0.4375 0.890625 0.4375 0.90625 0.375 0.9375 0.375 0.921875 0.4375 0.96875 0.375 0.984375 0.4375 0.953125 0.4375 0.84375 0.375 0.875 0.375 0.859375 0.4375 0.84375 0.375 0.859375 0.3125 0.875 0.375 0.875 0.25 0.90625 0.25 0.890625 0.3125 0.78125 0.375 0.796875 0.4375 0.765625 0.4375 0.78125 0.375 0.8125 0.375 0.796875 0.4375 0.84375 0.375 0.859375 0.4375 0.828125 0.4375 0.40625 0.375 0.421875 0.4375 0.390625 0.4375 0.40625 0.375 0.4375 0.375 0.421875 0.4375 0.46875 0.375 0.484375 0.4375 0.453125 0.4375 0.34375 0.375 0.375 0.375 0.359375 0.4375 0.34375 0.375 0.359375 0.3125 0.375 0.375 0.375 0.25 0.40625 0.25 0.390625 0.3125 0.28125 0.375 0.296875 0.4375 0.265625 0.4375 0.28125 0.375 0.3125 0.375 0.296875 0.4375 0.34375 0.375 0.359375 0.4375 0.328125 0.4375 0.375 0.75 0.359375 0.8125 0.34375 0.75 0.375 0.75 0.390625 0.8125 0.359375 0.8125 0.40625 0.875 0.390625 0.9375 0.375 0.875 0.34375 0.625 0.359375 0.6875 0.328125 0.6875 0.34375 0.625 0.375 0.625 0.359375 0.6875 0.40625 0.625 0.421875 0.6875 0.390625 0.6875 0.3125 0.5 0.296875 0.5625 0.28125 0.5 0.3125 0.5 0.328125 0.5625 0.296875 0.5625 0.34375 0.625 0.328125 0.6875 0.3125 0.625 0.15625 0.375 0.171875 0.4375 0.140625 0.4375 0.15625 0.375 0.1875 0.375 0.171875 0.4375 0.21875 0.375 0.234375 0.4375 0.203125 0.4375 0.09375 0.375 0.125 0.375 0.109375 0.4375 0.09375 0.375 0.109375 0.3125 0.125 0.375 0.125 0.25 0.15625 0.25 0.140625 0.3125 0.03125 0.375 0.046875 0.4375 0.015625 0.4375 0.03125 0.375 0.0625 0.375 0.046875 0.4375 0.09375 0.375 0.109375 0.4375 0.078125 0.4375 0.125 0.75 0.109375 0.8125 0.09375 0.75 0.125 0.75 0.140625 0.8125 0.109375 0.8125 0.15625 0.875 0.140625 0.9375 0.125 0.875 0.09375 0.625 0.109375 0.6875 0.078125 0.6875 0.09375 0.625 0.125 0.625 0.109375 0.6875 0.15625 0.625 0.171875 0.6875 0.140625 0.6875 0.0625 0.5 0.046875 0.5625 0.03125 0.5 0.0625 0.5 0.078125 0.5625 0.046875 0.5625 0.09375 0.625 0.078125 0.6875 0.0625 0.625 0.59375 0.125 0.609375 0.1875 0.578125 0.1875 0.59375 0.125 0.625 0.125 0.609375 0.1875 0.65625 0.125 0.671875 0.1875 0.640625 0.1875 0.59375 0.375 0.625 0.375 0.609375 0.4375 0.59375 0.375 0.609375 0.3125 0.625 0.375 0.625 0.25 0.65625 0.25 0.640625 0.3125 0.71875 0.625 0.703125 0.5625 0.734375 0.5625 0.71875 0.625 0.6875 0.625 0.703125 0.5625 0.65625 0.625 0.640625 0.5625 0.671875 0.5625 0.53125 0.375 0.546875 0.4375 0.515625 0.4375 0.53125 0.375 0.5625 0.375 0.546875 0.4375 0.59375 0.375 0.609375 0.4375 0.578125 0.4375 0.65625 0.875 0.640625 0.8125 0.671875 0.8125 0.65625 0.875 0.625 0.875 0.640625 0.8125 0.59375 0.875 0.578125 0.8125 0.609375 0.8125 0.65625 0.625 0.625 0.625 0.640625 0.5625 0.65625 0.625 0.640625 0.6875 0.625 0.625 0.625 0.75 0.59375 0.75 0.609375 0.6875 0.59375 0.625 0.578125 0.5625 0.609375 0.5625 0.59375 0.625 0.5625 0.625 0.578125 0.5625 0.53125 0.625 0.515625 0.5625 0.546875 0.5625 0.9375 0.5 0.921875 0.5625 0.90625 0.5 0.9375 0.5 0.953125 0.5625 0.921875 0.5625 0.96875 0.625 0.953125 0.6875 0.9375 0.625 0.1875 0.5 0.171875 0.5625 0.15625 0.5 0.1875 0.5 0.203125 0.5625 0.171875 0.5625 0.21875 0.625 0.203125 0.6875 0.1875 0.625 0.8125 0.5 0.796875 0.5625 0.78125 0.5 0.8125 0.5 0.828125 0.5625 0.796875 0.5625 0.84375 0.625 0.828125 0.6875 0.8125 0.625 0.84375 0.625 0.859375 0.6875 0.828125 0.6875 0.84375 0.625 0.875 0.625 0.859375 0.6875 0.90625 0.625 0.921875 0.6875 0.890625 0.6875 0.09375 0.125 0.109375 0.1875 0.078125 0.1875 0.09375 0.125 0.125 0.125 0.109375 0.1875 0.15625 0.125 0.171875 0.1875 0.140625 0.1875 0.4375 0.5 0.421875 0.5625 0.40625 0.5 0.4375 0.5 0.453125 0.5625 0.421875 0.5625 0.46875 0.625 0.453125 0.6875 0.4375 0.625 0.875 0.75 0.859375 0.8125 0.84375 0.75 0.875 0.75 0.890625 0.8125 0.859375 0.8125 0.90625 0.875 0.890625 0.9375 0.875 0.875 0.65625 0.375 0.671875 0.4375 0.640625 0.4375 0.65625 0.375 0.6875 0.375 0.671875 0.4375 0.71875 0.375 0.734375 0.4375 0.703125 0.4375 0.34375 0.125 0.359375 0.1875 0.328125 0.1875 0.34375 0.125 0.375 0.125 0.359375 0.1875 0.40625 0.125 0.421875 0.1875 0.390625 0.1875 0.84375 0.125 0.859375 0.1875 0.828125 0.1875 0.84375 0.125 0.875 0.125 0.859375 0.1875 0.90625 0.125 0.921875 0.1875 0.890625 0.1875 0.890625 0.1875 0.90625 0.25 0.875 0.25 0.890625 0.1875 0.921875 0.1875 0.90625 0.25 0.921875 0.1875 0.9375 0.25 0.90625 0.25 0.859375 0.1875 0.890625 0.1875 0.875 0.25 0.859375 0.1875 0.875 0.125 0.890625 0.1875 0.875 0.125 0.90625 0.125 0.890625 0.1875 0.828125 0.1875 0.84375 0.25 0.8125 0.25 0.828125 0.1875 0.859375 0.1875 0.84375 0.25 0.859375 0.1875 0.875 0.25 0.84375 0.25 0.390625 0.1875 0.40625 0.25 0.375 0.25 0.390625 0.1875 0.421875 0.1875 0.40625 0.25 0.421875 0.1875 0.4375 0.25 0.40625 0.25 0.359375 0.1875 0.390625 0.1875 0.375 0.25 0.359375 0.1875 0.375 0.125 0.390625 0.1875 0.375 0.125 0.40625 0.125 0.390625 0.1875 0.328125 0.1875 0.34375 0.25 0.3125 0.25 0.328125 0.1875 0.359375 0.1875 0.34375 0.25 0.359375 0.1875 0.375 0.25 0.34375 0.25 0.703125 0.4375 0.71875 0.5 0.6875 0.5 0.703125 0.4375 0.734375 0.4375 0.71875 0.5 0.734375 0.4375 0.75 0.5 0.71875 0.5 0.671875 0.4375 0.703125 0.4375 0.6875 0.5 0.671875 0.4375 0.6875 0.375 0.703125 0.4375 0.6875 0.375 0.71875 0.375 0.703125 0.4375 0.640625 0.4375 0.65625 0.5 0.625 0.5 0.640625 0.4375 0.671875 0.4375 0.65625 0.5 0.671875 0.4375 0.6875 0.5 0.65625 0.5 0.875 0.875 0.859375 0.9375 0.84375 0.875 0.875 0.875 0.890625 0.9375 0.859375 0.9375 0.890625 0.9375 0.875 1 0.859375 0.9375 0.859375 0.8125 0.875 0.875 0.84375 0.875 0.859375 0.8125 0.890625 0.8125 0.875 0.875 0.890625 0.8125 0.90625 0.875 0.875 0.875 0.84375 0.75 0.828125 0.8125 0.8125 0.75 0.84375 0.75 0.859375 0.8125 0.828125 0.8125 0.859375 0.8125 0.84375 0.875 0.828125 0.8125 0.4375 0.625 0.421875 0.6875 0.40625 0.625 0.4375 0.625 0.453125 0.6875 0.421875 0.6875 0.453125 0.6875 0.4375 0.75 0.421875 0.6875 0.421875 0.5625 0.4375 0.625 0.40625 0.625 0.421875 0.5625 0.453125 0.5625 0.4375 0.625 0.453125 0.5625 0.46875 0.625 0.4375 0.625 0.40625 0.5 0.390625 0.5625 0.375 0.5 0.40625 0.5 0.421875 0.5625 0.390625 0.5625 0.421875 0.5625 0.40625 0.625 0.390625 0.5625 0.140625 0.1875 0.15625 0.25 0.125 0.25 0.140625 0.1875 0.171875 0.1875 0.15625 0.25 0.171875 0.1875 0.1875 0.25 0.15625 0.25 0.109375 0.1875 0.140625 0.1875 0.125 0.25 0.109375 0.1875 0.125 0.125 0.140625 0.1875 0.125 0.125 0.15625 0.125 0.140625 0.1875 0.078125 0.1875 0.09375 0.25 0.0625 0.25 0.078125 0.1875 0.109375 0.1875 0.09375 0.25 0.109375 0.1875 0.125 0.25 0.09375 0.25 0.890625 0.6875 0.90625 0.75 0.875 0.75 0.890625 0.6875 0.921875 0.6875 0.90625 0.75 0.921875 0.6875 0.9375 0.75 0.90625 0.75 0.859375 0.6875 0.890625 0.6875 0.875 0.75 0.859375 0.6875 0.875 0.625 0.890625 0.6875 0.875 0.625 0.90625 0.625 0.890625 0.6875 0.828125 0.6875 0.84375 0.75 0.8125 0.75 0.828125 0.6875 0.859375 0.6875 0.84375 0.75 0.859375 0.6875 0.875 0.75 0.84375 0.75 0.8125 0.625 0.796875 0.6875 0.78125 0.625 0.8125 0.625 0.828125 0.6875 0.796875 0.6875 0.828125 0.6875 0.8125 0.75 0.796875 0.6875 0.796875 0.5625 0.8125 0.625 0.78125 0.625 0.796875 0.5625 0.828125 0.5625 0.8125 0.625 0.828125 0.5625 0.84375 0.625 0.8125 0.625 0.78125 0.5 0.765625 0.5625 0.75 0.5 0.78125 0.5 0.796875 0.5625 0.765625 0.5625 0.796875 0.5625 0.78125 0.625 0.765625 0.5625 0.1875 0.625 0.171875 0.6875 0.15625 0.625 0.1875 0.625 0.203125 0.6875 0.171875 0.6875 0.203125 0.6875 0.1875 0.75 0.171875 0.6875 0.171875 0.5625 0.1875 0.625 0.15625 0.625 0.171875 0.5625 0.203125 0.5625 0.1875 0.625 0.203125 0.5625 0.21875 0.625 0.1875 0.625 0.15625 0.5 0.140625 0.5625 0.125 0.5 0.15625 0.5 0.171875 0.5625 0.140625 0.5625 0.171875 0.5625 0.15625 0.625 0.140625 0.5625 0.9375 0.625 0.921875 0.6875 0.90625 0.625 0.9375 0.625 0.953125 0.6875 0.921875 0.6875 0.953125 0.6875 0.9375 0.75 0.921875 0.6875 0.921875 0.5625 0.9375 0.625 0.90625 0.625 0.921875 0.5625 0.953125 0.5625 0.9375 0.625 0.953125 0.5625 0.96875 0.625 0.9375 0.625 0.90625 0.5 0.890625 0.5625 0.875 0.5 0.90625 0.5 0.921875 0.5625 0.890625 0.5625 0.921875 0.5625 0.90625 0.625 0.890625 0.5625 0.546875 0.5625 0.53125 0.5 0.5625 0.5 0.546875 0.5625 0.515625 0.5625 0.53125 0.5 0.515625 0.5625 0.5 0.5 0.53125 0.5 0.578125 0.5625 0.546875 0.5625 0.5625 0.5 0.578125 0.5625 0.5625 0.625 0.546875 0.5625 0.5625 0.625 0.53125 0.625 0.546875 0.5625 0.609375 0.5625 0.59375 0.5 0.625 0.5 0.609375 0.5625 0.578125 0.5625 0.59375 0.5 0.578125 0.5625 0.5625 0.5 0.59375 0.5 0.609375 0.6875 0.578125 0.6875 0.59375 0.625 0.609375 0.6875 0.59375 0.75 0.578125 0.6875 0.59375 0.75 0.5625 0.75 0.578125 0.6875 0.625 0.625 0.609375 0.6875 0.59375 0.625 0.625 0.625 0.640625 0.6875 0.609375 0.6875 0.640625 0.6875 0.625 0.75 0.609375 0.6875 0.640625 0.5625 0.609375 0.5625 0.625 0.5 0.640625 0.5625 0.625 0.625 0.609375 0.5625 0.625 0.625 0.59375 0.625 0.609375 0.5625 0.609375 0.8125 0.59375 0.75 0.625 0.75 0.609375 0.8125 0.578125 0.8125 0.59375 0.75 0.578125 0.8125 0.5625 0.75 0.59375 0.75 0.640625 0.8125 0.609375 0.8125 0.625 0.75 0.640625 0.8125 0.625 0.875 0.609375 0.8125 0.625 0.875 0.59375 0.875 0.609375 0.8125 0.671875 0.8125 0.65625 0.75 0.6875 0.75 0.671875 0.8125 0.640625 0.8125 0.65625 0.75 0.640625 0.8125 0.625 0.75 0.65625 0.75 0.578125 0.4375 0.59375 0.5 0.5625 0.5 0.578125 0.4375 0.609375 0.4375 0.59375 0.5 0.609375 0.4375 0.625 0.5 0.59375 0.5 0.546875 0.4375 0.578125 0.4375 0.5625 0.5 0.546875 0.4375 0.5625 0.375 0.578125 0.4375 0.5625 0.375 0.59375 0.375 0.578125 0.4375 0.515625 0.4375 0.53125 0.5 0.5 0.5 0.515625 0.4375 0.546875 0.4375 0.53125 0.5 0.546875 0.4375 0.5625 0.5 0.53125 0.5 0.671875 0.5625 0.65625 0.5 0.6875 0.5 0.671875 0.5625 0.640625 0.5625 0.65625 0.5 0.640625 0.5625 0.625 0.5 0.65625 0.5 0.703125 0.5625 0.671875 0.5625 0.6875 0.5 0.703125 0.5625 0.6875 0.625 0.671875 0.5625 0.6875 0.625 0.65625 0.625 0.671875 0.5625 0.734375 0.5625 0.71875 0.5 0.75 0.5 0.734375 0.5625 0.703125 0.5625 0.71875 0.5 0.703125 0.5625 0.6875 0.5 0.71875 0.5 0.640625 0.3125 0.671875 0.3125 0.65625 0.375 0.640625 0.3125 0.65625 0.25 0.671875 0.3125 0.65625 0.25 0.6875 0.25 0.671875 0.3125 0.625 0.375 0.640625 0.3125 0.65625 0.375 0.625 0.375 0.609375 0.3125 0.640625 0.3125 0.609375 0.3125 0.625 0.25 0.640625 0.3125 0.609375 0.4375 0.640625 0.4375 0.625 0.5 0.609375 0.4375 0.625 0.375 0.640625 0.4375 0.625 0.375 0.65625 0.375 0.640625 0.4375 0.640625 0.1875 0.65625 0.25 0.625 0.25 0.640625 0.1875 0.671875 0.1875 0.65625 0.25 0.671875 0.1875 0.6875 0.25 0.65625 0.25 0.609375 0.1875 0.640625 0.1875 0.625 0.25 0.609375 0.1875 0.625 0.125 0.640625 0.1875 0.625 0.125 0.65625 0.125 0.640625 0.1875 0.578125 0.1875 0.59375 0.25 0.5625 0.25 0.578125 0.1875 0.609375 0.1875 0.59375 0.25 0.609375 0.1875 0.625 0.25 0.59375 0.25 0.0625 0.625 0.046875 0.6875 0.03125 0.625 0.0625 0.625 0.078125 0.6875 0.046875 0.6875 0.078125 0.6875 0.0625 0.75 0.046875 0.6875 0.046875 0.5625 0.0625 0.625 0.03125 0.625 0.046875 0.5625 0.078125 0.5625 0.0625 0.625 0.078125 0.5625 0.09375 0.625 0.0625 0.625 0.03125 0.5 0.015625 0.5625 0 0.5 0.03125 0.5 0.046875 0.5625 0.015625 0.5625 0.046875 0.5625 0.03125 0.625 0.015625 0.5625 0.140625 0.6875 0.15625 0.75 0.125 0.75 0.140625 0.6875 0.171875 0.6875 0.15625 0.75 0.171875 0.6875 0.1875 0.75 0.15625 0.75 0.109375 0.6875 0.140625 0.6875 0.125 0.75 0.109375 0.6875 0.125 0.625 0.140625 0.6875 0.125 0.625 0.15625 0.625 0.140625 0.6875 0.078125 0.6875 0.09375 0.75 0.0625 0.75 0.078125 0.6875 0.109375 0.6875 0.09375 0.75 0.109375 0.6875 0.125 0.75 0.09375 0.75 0.125 0.875 0.109375 0.9375 0.09375 0.875 0.125 0.875 0.140625 0.9375 0.109375 0.9375 0.140625 0.9375 0.125 1 0.109375 0.9375 0.109375 0.8125 0.125 0.875 0.09375 0.875 0.109375 0.8125 0.140625 0.8125 0.125 0.875 0.140625 0.8125 0.15625 0.875 0.125 0.875 0.09375 0.75 0.078125 0.8125 0.0625 0.75 0.09375 0.75 0.109375 0.8125 0.078125 0.8125 0.109375 0.8125 0.09375 0.875 0.078125 0.8125 0.078125 0.4375 0.09375 0.5 0.0625 0.5 0.078125 0.4375 0.109375 0.4375 0.09375 0.5 0.109375 0.4375 0.125 0.5 0.09375 0.5 0.046875 0.4375 0.078125 0.4375 0.0625 0.5 0.046875 0.4375 0.0625 0.375 0.078125 0.4375 0.0625 0.375 0.09375 0.375 0.078125 0.4375 0.015625 0.4375 0.03125 0.5 0 0.5 0.015625 0.4375 0.046875 0.4375 0.03125 0.5 0.046875 0.4375 0.0625 0.5 0.03125 0.5 0.140625 0.3125 0.171875 0.3125 0.15625 0.375 0.140625 0.3125 0.15625 0.25 0.171875 0.3125 0.15625 0.25 0.1875 0.25 0.171875 0.3125 0.125 0.375 0.140625 0.3125 0.15625 0.375 0.125 0.375 0.109375 0.3125 0.140625 0.3125 0.109375 0.3125 0.125 0.25 0.140625 0.3125 0.109375 0.4375 0.140625 0.4375 0.125 0.5 0.109375 0.4375 0.125 0.375 0.140625 0.4375 0.125 0.375 0.15625 0.375 0.140625 0.4375 0.203125 0.4375 0.21875 0.5 0.1875 0.5 0.203125 0.4375 0.234375 0.4375 0.21875 0.5 0.234375 0.4375 0.25 0.5 0.21875 0.5 0.171875 0.4375 0.203125 0.4375 0.1875 0.5 0.171875 0.4375 0.1875 0.375 0.203125 0.4375 0.1875 0.375 0.21875 0.375 0.203125 0.4375 0.140625 0.4375 0.15625 0.5 0.125 0.5 0.140625 0.4375 0.171875 0.4375 0.15625 0.5 0.171875 0.4375 0.1875 0.5 0.15625 0.5 0.3125 0.625 0.296875 0.6875 0.28125 0.625 0.3125 0.625 0.328125 0.6875 0.296875 0.6875 0.328125 0.6875 0.3125 0.75 0.296875 0.6875 0.296875 0.5625 0.3125 0.625 0.28125 0.625 0.296875 0.5625 0.328125 0.5625 0.3125 0.625 0.328125 0.5625 0.34375 0.625 0.3125 0.625 0.28125 0.5 0.265625 0.5625 0.25 0.5 0.28125 0.5 0.296875 0.5625 0.265625 0.5625 0.296875 0.5625 0.28125 0.625 0.265625 0.5625 0.390625 0.6875 0.40625 0.75 0.375 0.75 0.390625 0.6875 0.421875 0.6875 0.40625 0.75 0.421875 0.6875 0.4375 0.75 0.40625 0.75 0.359375 0.6875 0.390625 0.6875 0.375 0.75 0.359375 0.6875 0.375 0.625 0.390625 0.6875 0.375 0.625 0.40625 0.625 0.390625 0.6875 0.328125 0.6875 0.34375 0.75 0.3125 0.75 0.328125 0.6875 0.359375 0.6875 0.34375 0.75 0.359375 0.6875 0.375 0.75 0.34375 0.75 0.375 0.875 0.359375 0.9375 0.34375 0.875 0.375 0.875 0.390625 0.9375 0.359375 0.9375 0.390625 0.9375 0.375 1 0.359375 0.9375 0.359375 0.8125 0.375 0.875 0.34375 0.875 0.359375 0.8125 0.390625 0.8125 0.375 0.875 0.390625 0.8125 0.40625 0.875 0.375 0.875 0.34375 0.75 0.328125 0.8125 0.3125 0.75 0.34375 0.75 0.359375 0.8125 0.328125 0.8125 0.359375 0.8125 0.34375 0.875 0.328125 0.8125 0.328125 0.4375 0.34375 0.5 0.3125 0.5 0.328125 0.4375 0.359375 0.4375 0.34375 0.5 0.359375 0.4375 0.375 0.5 0.34375 0.5 0.296875 0.4375 0.328125 0.4375 0.3125 0.5 0.296875 0.4375 0.3125 0.375 0.328125 0.4375 0.3125 0.375 0.34375 0.375 0.328125 0.4375 0.265625 0.4375 0.28125 0.5 0.25 0.5 0.265625 0.4375 0.296875 0.4375 0.28125 0.5 0.296875 0.4375 0.3125 0.5 0.28125 0.5 0.390625 0.3125 0.421875 0.3125 0.40625 0.375 0.390625 0.3125 0.40625 0.25 0.421875 0.3125 0.40625 0.25 0.4375 0.25 0.421875 0.3125 0.375 0.375 0.390625 0.3125 0.40625 0.375 0.375 0.375 0.359375 0.3125 0.390625 0.3125 0.359375 0.3125 0.375 0.25 0.390625 0.3125 0.359375 0.4375 0.390625 0.4375 0.375 0.5 0.359375 0.4375 0.375 0.375 0.390625 0.4375 0.375 0.375 0.40625 0.375 0.390625 0.4375 0.453125 0.4375 0.46875 0.5 0.4375 0.5 0.453125 0.4375 0.484375 0.4375 0.46875 0.5 0.484375 0.4375 0.5 0.5 0.46875 0.5 0.421875 0.4375 0.453125 0.4375 0.4375 0.5 0.421875 0.4375 0.4375 0.375 0.453125 0.4375 0.4375 0.375 0.46875 0.375 0.453125 0.4375 0.390625 0.4375 0.40625 0.5 0.375 0.5 0.390625 0.4375 0.421875 0.4375 0.40625 0.5 0.421875 0.4375 0.4375 0.5 0.40625 0.5 0.828125 0.4375 0.84375 0.5 0.8125 0.5 0.828125 0.4375 0.859375 0.4375 0.84375 0.5 0.859375 0.4375 0.875 0.5 0.84375 0.5 0.796875 0.4375 0.828125 0.4375 0.8125 0.5 0.796875 0.4375 0.8125 0.375 0.828125 0.4375 0.8125 0.375 0.84375 0.375 0.828125 0.4375 0.765625 0.4375 0.78125 0.5 0.75 0.5 0.765625 0.4375 0.796875 0.4375 0.78125 0.5 0.796875 0.4375 0.8125 0.5 0.78125 0.5 0.890625 0.3125 0.921875 0.3125 0.90625 0.375 0.890625 0.3125 0.90625 0.25 0.921875 0.3125 0.90625 0.25 0.9375 0.25 0.921875 0.3125 0.875 0.375 0.890625 0.3125 0.90625 0.375 0.875 0.375 0.859375 0.3125 0.890625 0.3125 0.859375 0.3125 0.875 0.25 0.890625 0.3125 0.859375 0.4375 0.890625 0.4375 0.875 0.5 0.859375 0.4375 0.875 0.375 0.890625 0.4375 0.875 0.375 0.90625 0.375 0.890625 0.4375 0.953125 0.4375 0.96875 0.5 0.9375 0.5 0.953125 0.4375 0.984375 0.4375 0.96875 0.5 0.984375 0.4375 1 0.5 0.96875 0.5 0.921875 0.4375 0.953125 0.4375 0.9375 0.5 0.921875 0.4375 0.9375 0.375 0.953125 0.4375 0.9375 0.375 0.96875 0.375 0.953125 0.4375 0.890625 0.4375 0.90625 0.5 0.875 0.5 0.890625 0.4375 0.921875 0.4375 0.90625 0.5 0.921875 0.4375 0.9375 0.5 0.90625 0.5 0.921875 0.3125 0.9375 0.375 0.90625 0.375 0.921875 0.3125 0.953125 0.3125 0.9375 0.375 0.953125 0.3125 0.96875 0.375 0.9375 0.375 0.828125 0.3125 0.859375 0.3125 0.84375 0.375 0.828125 0.3125 0.84375 0.25 0.859375 0.3125 0.84375 0.25 0.875 0.25 0.859375 0.3125 0.796875 0.3125 0.8125 0.375 0.78125 0.375 0.796875 0.3125 0.828125 0.3125 0.8125 0.375 0.828125 0.3125 0.84375 0.375 0.8125 0.375 0.421875 0.3125 0.4375 0.375 0.40625 0.375 0.421875 0.3125 0.453125 0.3125 0.4375 0.375 0.453125 0.3125 0.46875 0.375 0.4375 0.375 0.328125 0.3125 0.359375 0.3125 0.34375 0.375 0.328125 0.3125 0.34375 0.25 0.359375 0.3125 0.34375 0.25 0.375 0.25 0.359375 0.3125 0.296875 0.3125 0.3125 0.375 0.28125 0.375 0.296875 0.3125 0.328125 0.3125 0.3125 0.375 0.328125 0.3125 0.34375 0.375 0.3125 0.375 0.40625 0.75 0.390625 0.8125 0.375 0.75 0.40625 0.75 0.421875 0.8125 0.390625 0.8125 0.421875 0.8125 0.40625 0.875 0.390625 0.8125 0.359375 0.5625 0.375 0.625 0.34375 0.625 0.359375 0.5625 0.390625 0.5625 0.375 0.625 0.390625 0.5625 0.40625 0.625 0.375 0.625 0.34375 0.5 0.328125 0.5625 0.3125 0.5 0.34375 0.5 0.359375 0.5625 0.328125 0.5625 0.359375 0.5625 0.34375 0.625 0.328125 0.5625 0.171875 0.3125 0.1875 0.375 0.15625 0.375 0.171875 0.3125 0.203125 0.3125 0.1875 0.375 0.203125 0.3125 0.21875 0.375 0.1875 0.375 0.078125 0.3125 0.109375 0.3125 0.09375 0.375 0.078125 0.3125 0.09375 0.25 0.109375 0.3125 0.09375 0.25 0.125 0.25 0.109375 0.3125 0.046875 0.3125 0.0625 0.375 0.03125 0.375 0.046875 0.3125 0.078125 0.3125 0.0625 0.375 0.078125 0.3125 0.09375 0.375 0.0625 0.375 0.15625 0.75 0.140625 0.8125 0.125 0.75 0.15625 0.75 0.171875 0.8125 0.140625 0.8125 0.171875 0.8125 0.15625 0.875 0.140625 0.8125 0.109375 0.5625 0.125 0.625 0.09375 0.625 0.109375 0.5625 0.140625 0.5625 0.125 0.625 0.140625 0.5625 0.15625 0.625 0.125 0.625 0.09375 0.5 0.078125 0.5625 0.0625 0.5 0.09375 0.5 0.109375 0.5625 0.078125 0.5625 0.109375 0.5625 0.09375 0.625 0.078125 0.5625 0.609375 0.0625 0.625 0.125 0.59375 0.125 0.609375 0.0625 0.640625 0.0625 0.625 0.125 0.640625 0.0625 0.65625 0.125 0.625 0.125 0.578125 0.3125 0.609375 0.3125 0.59375 0.375 0.578125 0.3125 0.59375 0.25 0.609375 0.3125 0.59375 0.25 0.625 0.25 0.609375 0.3125 0.703125 0.6875 0.6875 0.625 0.71875 0.625 0.703125 0.6875 0.671875 0.6875 0.6875 0.625 0.671875 0.6875 0.65625 0.625 0.6875 0.625 0.546875 0.3125 0.5625 0.375 0.53125 0.375 0.546875 0.3125 0.578125 0.3125 0.5625 0.375 0.578125 0.3125 0.59375 0.375 0.5625 0.375 0.640625 0.9375 0.625 0.875 0.65625 0.875 0.640625 0.9375 0.609375 0.9375 0.625 0.875 0.609375 0.9375 0.59375 0.875 0.625 0.875 0.671875 0.6875 0.640625 0.6875 0.65625 0.625 0.671875 0.6875 0.65625 0.75 0.640625 0.6875 0.65625 0.75 0.625 0.75 0.640625 0.6875 0.578125 0.6875 0.5625 0.625 0.59375 0.625 0.578125 0.6875 0.546875 0.6875 0.5625 0.625 0.546875 0.6875 0.53125 0.625 0.5625 0.625 0.96875 0.5 0.953125 0.5625 0.9375 0.5 0.96875 0.5 0.984375 0.5625 0.953125 0.5625 0.984375 0.5625 0.96875 0.625 0.953125 0.5625 0.21875 0.5 0.203125 0.5625 0.1875 0.5 0.21875 0.5 0.234375 0.5625 0.203125 0.5625 0.234375 0.5625 0.21875 0.625 0.203125 0.5625 0.84375 0.5 0.828125 0.5625 0.8125 0.5 0.84375 0.5 0.859375 0.5625 0.828125 0.5625 0.859375 0.5625 0.84375 0.625 0.828125 0.5625 0.859375 0.5625 0.875 0.625 0.84375 0.625 0.859375 0.5625 0.890625 0.5625 0.875 0.625 0.890625 0.5625 0.90625 0.625 0.875 0.625 0.109375 0.06249994 0.125 0.125 0.09375 0.125 0.109375 0.06249994 0.140625 0.06249994 0.125 0.125 0.140625 0.06249994 0.15625 0.125 0.125 0.125 0.46875 0.5 0.453125 0.5625 0.4375 0.5 0.46875 0.5 0.484375 0.5625 0.453125 0.5625 0.484375 0.5625 0.46875 0.625 0.453125 0.5625 0.90625 0.75 0.890625 0.8125 0.875 0.75 0.90625 0.75 0.921875 0.8125 0.890625 0.8125 0.921875 0.8125 0.90625 0.875 0.890625 0.8125 0.671875 0.3125 0.6875 0.375 0.65625 0.375 0.671875 0.3125 0.703125 0.3125 0.6875 0.375 0.703125 0.3125 0.71875 0.375 0.6875 0.375 0.359375 0.06249994 0.375 0.125 0.34375 0.125 0.359375 0.06249994 0.390625 0.0625 0.375 0.125 0.390625 0.0625 0.40625 0.125 0.375 0.125 0.859375 0.0625 0.875 0.125 0.84375 0.125 0.859375 0.0625 0.890625 0.06249994 0.875 0.125 0.890625 0.06249994 0.90625 0.125 0.875 0.125</float_array>
          <technique_common>
            <accessor source="#Sphere_001-mesh-map-0-array" count="1536" stride="2">
              <param name="S" type="float"/>
              <param name="T" type="float"/>
            </accessor>
          </technique_common>
        </source>
        <vertices id="Sphere_001-mesh-vertices">
          <input semantic="POSITION" source="#Sphere_001-mesh-positions"/>
        </vertices>
        <triangles count="512">
          <input semantic="VERTEX" source="#Sphere_001-mesh-vertices" offset="0"/>
          <input semantic="NORMAL" source="#Sphere_001-mesh-normals" offset="1"/>
          <input semantic="TEXCOORD" source="#Sphere_001-mesh-map-0" offset="2" set="0"/>
          <p>9 0 0 91 1 1 86 2 2 9 0 3 88 3 4 74 4 5 2 5 6 67 6 7 75 7 8 15 8 9 89 9 10 98 10 11 3 11 12 87 12 13 121 13 14 9 0 15 74 4 16 91 1 17 17 14 18 145 15 19 144 16 20 17 14 21 144 16 22 82 17 23 7 18 24 72 19 25 119 20 26 11 21 27 90 22 28 92 23 29 1 24 30 135 25 31 95 26 32 4 27 33 142 28 34 118 29 35 5 30 36 114 31 37 116 32 38 14 33 39 128 34 40 93 35 41 4 27 42 118 29 43 133 36 44 14 33 45 125 37 46 128 34 47 9 0 48 86 2 49 88 3 50 6 38 51 147 39 52 129 40 53 6 38 54 148 41 55 147 39 56 12 42 57 79 43 58 101 44 59 16 45 60 150 46 61 83 47 62 16 45 63 151 48 64 150 46 65 10 49 66 78 50 67 104 51 68 8 52 69 153 53 70 124 54 71 8 52 72 154 55 73 153 53 74 1 24 75 66 56 76 107 57 77 10 49 78 156 58 79 78 50 80 10 49 81 157 59 82 156 58 83 14 33 84 93 35 85 110 60 86 2 5 87 159 61 88 67 6 89 2 5 90 160 62 91 159 61 92 16 45 93 83 47 94 113 63 95 65 64 96 162 65 97 161 66 98 65 64 99 163 67 100 162 65 101 35 68 102 131 69 103 164 70 104 63 71 105 165 72 106 111 73 107 63 71 108 166 74 109 165 72 110 64 75 111 112 76 112 167 77 113 19 78 114 168 79 115 115 80 116 19 78 117 169 81 118 168 79 119 63 71 120 111 73 121 170 82 122 62 83 123 171 84 124 158 85 125 62 83 126 172 86 127 171 84 128 45 87 129 141 88 130 173 89 131 60 90 132 174 91 133 108 92 134 60 90 135 175 93 136 174 91 137 61 94 138 109 95 139 176 96 140 30 97 141 177 98 142 126 99 143 30 97 144 178 100 145 177 98 146 60 90 147 108 92 148 179 101 149 59 102 150 180 103 151 155 104 152 59 102 153 181 105 154 180 103 155 18 106 156 114 31 157 182 107 158 57 108 159 183 109 160 105 110 161 57 108 162 184 111 163 183 109 164 58 112 165 106 113 166 185 114 167 28 115 168 186 116 169 76 117 170 28 115 171 187 118 172 186 116 173 57 108 174 105 110 175 188 119 176 56 120 177 189 121 178 152 122 179 56 120 180 190 123 181 189 121 182 30 97 183 126 99 184 191 124 185 54 125 186 192 126 187 102 127 188 54 125 189 193 128 190 192 126 191 55 129 192 103 130 193 194 131 194 35 68 195 195 132 196 131 69 197 35 68 198 196 133 199 195 132 200 54 125 201 102 127 202 197 134 203 53 135 204 198 136 205 149 137 206 53 135 207 199 138 208 198 136 209 31 139 210 127 140 211 200 141 212 51 142 213 201 143 214 99 144 215 51 142 216 202 145 217 201 143 218 52 146 219 100 147 220 203 148 221 33 149 222 204 150 223 81 151 224 33 149 225 205 152 226 204 150 227 51 142 228 99 144 229 206 153 230 40 154 231 207 155 232 136 156 233 40 154 234 208 157 235 207 155 236 38 158 237 134 159 238 209 160 239 32 161 240 210 162 241 80 163 242 32 161 243 211 164 244 210 162 245 29 165 246 77 166 247 212 167 248 37 168 249 213 169 250 85 170 251 37 168 252 214 171 253 213 169 254 22 172 255 70 173 256 215 174 257 45 87 258 216 175 259 141 88 260 45 87 261 217 176 262 216 175 263 32 161 264 80 163 265 218 177 266 20 178 267 219 179 268 68 180 269 20 178 270 220 181 271 219 179 272 18 106 273 66 56 274 221 182 275 22 172 276 222 183 277 70 173 278 22 172 279 223 184 280 222 183 281 46 185 282 94 186 283 224 187 284 47 188 285 225 189 286 143 190 287 47 188 288 226 191 289 225 189 290 39 192 291 87 12 292 227 193 293 44 194 294 228 195 295 140 196 296 44 194 297 229 197 298 228 195 299 42 198 300 138 199 301 230 200 302 23 201 303 231 202 304 71 203 305 23 201 306 232 204 307 231 202 308 24 205 309 120 206 310 233 207 311 34 208 312 234 209 313 130 210 314 34 208 315 235 211 316 234 209 317 48 212 318 96 213 319 236 214 320 48 212 321 237 215 322 96 213 323 48 212 324 238 216 325 237 215 326 49 217 327 97 218 328 239 219 329 43 220 330 240 221 331 139 222 332 43 220 333 241 223 334 240 221 335 26 224 336 122 225 337 242 226 338 25 227 339 243 228 340 73 229 341 25 227 342 244 230 343 243 228 344 39 192 345 135 25 346 245 231 347 50 232 348 246 233 349 146 234 350 50 232 351 247 235 352 246 233 353 41 236 354 137 237 355 248 238 356 27 239 357 249 240 358 123 241 359 27 239 360 250 242 361 249 240 362 19 78 363 115 80 364 251 243 365 26 224 366 252 244 367 122 225 368 26 224 369 253 245 370 252 244 371 40 154 372 136 156 373 254 246 374 38 158 375 255 247 376 134 159 377 38 158 378 256 248 379 255 247 380 43 220 381 139 222 382 257 249 383 257 249 384 112 76 385 64 75 386 257 249 387 139 222 388 112 76 389 139 222 390 16 45 391 112 76 392 255 247 393 257 249 394 64 75 395 255 247 396 256 248 397 257 249 398 256 248 399 43 220 400 257 249 401 134 159 402 160 62 403 2 5 404 134 159 405 255 247 406 160 62 407 255 247 408 64 75 409 160 62 410 254 246 411 109 95 412 61 94 413 254 246 414 136 156 415 109 95 416 136 156 417 14 33 418 109 95 419 252 244 420 254 246 421 61 94 422 252 244 423 253 245 424 254 246 425 253 245 426 40 154 427 254 246 428 122 225 429 157 59 430 10 49 431 122 225 432 252 244 433 157 59 434 252 244 435 61 94 436 157 59 437 251 243 438 69 250 439 21 251 440 251 243 441 115 80 442 69 250 443 115 80 444 0 252 445 69 250 446 249 240 447 251 243 448 21 251 449 249 240 450 250 242 451 251 243 452 250 242 453 19 78 454 251 243 455 123 241 456 117 253 457 13 254 458 123 241 459 249 240 460 117 253 461 249 240 462 21 251 463 117 253 464 248 238 465 116 32 466 20 178 467 248 238 468 137 237 469 116 32 470 137 237 471 5 30 472 116 32 473 246 233 474 248 238 475 20 178 476 246 233 477 247 235 478 248 238 479 247 235 480 41 236 481 248 238 482 146 234 483 68 180 484 4 27 485 146 234 486 246 233 487 68 180 488 246 233 489 20 178 490 68 180 491 245 231 492 106 113 493 58 112 494 245 231 495 135 25 496 106 113 497 135 25 498 1 24 499 106 113 500 243 228 501 245 231 502 58 112 503 243 228 504 244 230 505 245 231 506 244 230 507 39 192 508 245 231 509 73 229 510 154 55 511 8 52 512 73 229 513 243 228 514 154 55 515 243 228 516 58 112 517 154 55 518 242 226 519 103 130 520 55 129 521 242 226 522 122 225 523 103 130 524 122 225 525 10 49 526 103 130 527 240 221 528 242 226 529 55 129 530 240 221 531 241 223 532 242 226 533 241 223 534 26 224 535 242 226 536 139 222 537 151 48 538 16 45 539 139 222 540 240 221 541 151 48 542 240 221 543 55 129 544 151 48 545 239 219 546 98 10 547 50 232 548 239 219 549 97 218 550 98 10 551 97 218 552 15 8 553 98 10 554 237 215 555 239 219 556 50 232 557 237 215 558 238 216 559 239 219 560 238 216 561 49 217 562 239 219 563 96 213 564 146 234 565 4 27 566 96 213 567 237 215 568 146 234 569 237 215 570 50 232 571 146 234 572 236 214 573 133 36 574 37 168 575 236 214 576 96 213 577 133 36 578 96 213 579 4 27 580 133 36 581 234 209 582 236 214 583 37 168 584 234 209 585 235 211 586 236 214 587 235 211 588 48 212 589 236 214 590 130 210 591 85 170 592 0 252 593 130 210 594 234 209 595 85 170 596 234 209 597 37 168 598 85 170 599 233 207 600 100 147 601 52 146 602 233 207 603 120 206 604 100 147 605 120 206 606 12 42 607 100 147 608 231 202 609 233 207 610 52 146 611 231 202 612 232 204 613 233 207 614 232 204 615 24 205 616 233 207 617 71 203 618 148 41 619 6 38 620 71 203 621 231 202 622 148 41 623 231 202 624 52 146 625 148 41 626 230 200 627 97 218 628 49 217 629 230 200 630 138 199 631 97 218 632 138 199 633 15 8 634 97 218 635 228 195 636 230 200 637 49 217 638 228 195 639 229 197 640 230 200 641 229 197 642 42 198 643 230 200 644 140 196 645 145 15 646 17 14 647 140 196 648 228 195 649 145 15 650 228 195 651 49 217 652 145 15 653 227 193 654 132 255 655 36 256 656 227 193 657 87 12 658 132 255 659 87 12 660 3 11 661 132 255 662 225 189 663 227 193 664 36 256 665 225 189 666 226 191 667 227 193 668 226 191 669 39 192 670 227 193 671 143 190 672 84 257 673 13 254 674 143 190 675 225 189 676 84 257 677 225 189 678 36 256 679 84 257 680 224 187 681 95 26 682 47 188 683 224 187 684 94 186 685 95 26 686 94 186 687 1 24 688 95 26 689 222 183 690 224 187 691 47 188 692 222 183 693 223 184 694 224 187 695 223 184 696 46 185 697 224 187 698 70 173 699 143 190 700 13 254 701 70 173 702 222 183 703 143 190 704 222 183 705 47 188 706 143 190 707 221 182 708 94 186 709 46 185 710 221 182 711 66 56 712 94 186 713 66 56 714 1 24 715 94 186 716 219 179 717 221 182 718 46 185 719 219 179 720 220 181 721 221 182 722 220 181 723 18 106 724 221 182 725 68 180 726 142 28 727 4 27 728 68 180 729 219 179 730 142 28 731 219 179 732 46 185 733 142 28 734 218 177 735 84 257 736 36 256 737 218 177 738 80 163 739 84 257 740 80 163 741 13 254 742 84 257 743 216 175 744 218 177 745 36 256 746 216 175 747 217 176 748 218 177 749 217 176 750 32 161 751 218 177 752 141 88 753 132 255 754 3 11 755 141 88 756 216 175 757 132 255 758 216 175 759 36 256 760 132 255 761 215 174 762 117 253 763 21 251 764 215 174 765 70 173 766 117 253 767 70 173 768 13 254 769 117 253 770 213 169 771 215 174 772 21 251 773 213 169 774 214 171 775 215 174 776 214 171 777 22 172 778 215 174 779 85 170 780 69 250 781 0 252 782 85 170 783 213 169 784 69 250 785 213 169 786 21 251 787 69 250 788 212 167 789 75 7 790 27 239 791 212 167 792 77 166 793 75 7 794 77 166 795 2 5 796 75 7 797 210 162 798 212 167 799 27 239 800 210 162 801 211 164 802 212 167 803 211 164 804 29 165 805 212 167 806 80 163 807 123 241 808 13 254 809 80 163 810 210 162 811 123 241 812 210 162 813 27 239 814 123 241 815 209 160 816 77 166 817 29 165 818 209 160 819 134 159 820 77 166 821 134 159 822 2 5 823 77 166 824 207 155 825 209 160 826 29 165 827 207 155 828 208 157 829 209 160 830 208 157 831 38 158 832 209 160 833 136 156 834 125 37 835 14 33 836 136 156 837 207 155 838 125 37 839 207 155 840 29 165 841 125 37 842 206 153 843 138 199 844 42 198 845 206 153 846 99 144 847 138 199 848 99 144 849 15 8 850 138 199 851 204 150 852 206 153 853 42 198 854 204 150 855 205 152 856 206 153 857 205 152 858 51 142 859 206 153 860 81 151 861 90 22 862 11 21 863 81 151 864 204 150 865 90 22 866 204 150 867 42 198 868 90 22 869 203 148 870 101 44 871 53 135 872 203 148 873 100 147 874 101 44 875 100 147 876 12 42 877 101 44 878 201 143 879 203 148 880 53 135 881 201 143 882 202 145 883 203 148 884 202 145 885 52 146 886 203 148 887 99 144 888 149 137 889 15 8 890 99 144 891 201 143 892 149 137 893 201 143 894 53 135 895 149 137 896 200 141 897 137 237 898 41 236 899 200 141 900 127 140 901 137 237 902 127 140 903 5 30 904 137 237 905 198 136 906 200 141 907 41 236 908 198 136 909 199 138 910 200 141 911 199 138 912 31 139 913 200 141 914 149 137 915 89 9 916 15 8 917 149 137 918 198 136 919 89 9 920 198 136 921 41 236 922 89 9 923 197 134 924 129 40 925 33 149 926 197 134 927 102 127 928 129 40 929 102 127 930 6 38 931 129 40 932 195 132 933 197 134 934 33 149 935 195 132 936 196 133 937 197 134 938 196 133 939 54 125 940 197 134 941 131 69 942 81 151 943 11 21 944 131 69 945 195 132 946 81 151 947 195 132 948 33 149 949 81 151 950 194 131 951 104 51 952 56 120 953 194 131 954 103 130 955 104 51 956 103 130 957 10 49 958 104 51 959 192 126 960 194 131 961 56 120 962 192 126 963 193 128 964 194 131 965 193 128 966 55 129 967 194 131 968 102 127 969 152 122 970 6 38 971 102 127 972 192 126 973 152 122 974 192 126 975 56 120 976 152 122 977 191 124 978 119 20 979 23 201 980 191 124 981 126 99 982 119 20 983 126 99 984 7 18 985 119 20 986 189 121 987 191 124 988 23 201 989 189 121 990 190 123 991 191 124 992 190 123 993 30 97 994 191 124 995 152 122 996 71 203 997 6 38 998 152 122 999 189 121 1000 71 203 1001 189 121 1002 23 201 1003 71 203 1004 188 119 1005 120 206 1006 24 205 1007 188 119 1008 105 110 1009 120 206 1010 105 110 1011 12 42 1012 120 206 1013 186 116 1014 188 119 1015 24 205 1016 186 116 1017 187 118 1018 188 119 1019 187 118 1020 57 108 1021 188 119 1022 76 117 1023 72 19 1024 7 18 1025 76 117 1026 186 116 1027 72 19 1028 186 116 1029 24 205 1030 72 19 1031 185 114 1032 107 57 1033 59 102 1034 185 114 1035 106 113 1036 107 57 1037 106 113 1038 1 24 1039 107 57 1040 183 109 1041 185 114 1042 59 102 1043 183 109 1044 184 111 1045 185 114 1046 184 111 1047 58 112 1048 185 114 1049 105 110 1050 155 104 1051 12 42 1052 105 110 1053 183 109 1054 155 104 1055 183 109 1056 59 102 1057 155 104 1058 182 107 1059 127 140 1060 31 139 1061 182 107 1062 114 31 1063 127 140 1064 114 31 1065 5 30 1066 127 140 1067 180 103 1068 182 107 1069 31 139 1070 180 103 1071 181 105 1072 182 107 1073 181 105 1074 18 106 1075 182 107 1076 155 104 1077 79 43 1078 12 42 1079 155 104 1080 180 103 1081 79 43 1082 180 103 1083 31 139 1084 79 43 1085 179 101 1086 124 54 1087 28 115 1088 179 101 1089 108 92 1090 124 54 1091 108 92 1092 8 52 1093 124 54 1094 177 98 1095 179 101 1096 28 115 1097 177 98 1098 178 100 1099 179 101 1100 178 100 1101 60 90 1102 179 101 1103 126 99 1104 76 117 1105 7 18 1106 126 99 1107 177 98 1108 76 117 1109 177 98 1110 28 115 1111 76 117 1112 176 96 1113 110 60 1114 62 83 1115 176 96 1116 109 95 1117 110 60 1118 109 95 1119 14 33 1120 110 60 1121 174 91 1122 176 96 1123 62 83 1124 174 91 1125 175 93 1126 176 96 1127 175 93 1128 61 94 1129 176 96 1130 108 92 1131 158 85 1132 8 52 1133 108 92 1134 174 91 1135 158 85 1136 174 91 1137 62 83 1138 158 85 1139 173 89 1140 121 13 1141 25 227 1142 173 89 1143 141 88 1144 121 13 1145 141 88 1146 3 11 1147 121 13 1148 171 84 1149 173 89 1150 25 227 1151 171 84 1152 172 86 1153 173 89 1154 172 86 1155 45 87 1156 173 89 1157 158 85 1158 73 229 1159 8 52 1160 158 85 1161 171 84 1162 73 229 1163 171 84 1164 25 227 1165 73 229 1166 170 82 1167 82 17 1168 34 208 1169 170 82 1170 111 73 1171 82 17 1172 111 73 1173 17 14 1174 82 17 1175 168 79 1176 170 82 1177 34 208 1178 168 79 1179 169 81 1180 170 82 1181 169 81 1182 63 71 1183 170 82 1184 115 80 1185 130 210 1186 0 252 1187 115 80 1188 168 79 1189 130 210 1190 168 79 1191 34 208 1192 130 210 1193 167 77 1194 113 63 1195 65 64 1196 167 77 1197 112 76 1198 113 63 1199 112 76 1200 16 45 1201 113 63 1202 165 72 1203 167 77 1204 65 64 1205 165 72 1206 166 74 1207 167 77 1208 166 74 1209 64 75 1210 167 77 1211 111 73 1212 161 66 1213 17 14 1214 111 73 1215 165 72 1216 161 66 1217 165 72 1218 65 64 1219 161 66 1220 164 70 1221 92 23 1222 44 194 1223 164 70 1224 131 69 1225 92 23 1226 131 69 1227 11 21 1228 92 23 1229 162 65 1230 164 70 1231 44 194 1232 162 65 1233 163 67 1234 164 70 1235 163 67 1236 35 68 1237 164 70 1238 161 66 1239 140 196 1240 17 14 1241 161 66 1242 162 65 1243 140 196 1244 162 65 1245 44 194 1246 140 196 1247 113 63 1248 163 67 1249 65 64 1250 113 63 1251 83 47 1252 163 67 1253 83 47 1254 35 68 1255 163 67 1256 159 61 1257 166 74 1258 63 71 1259 159 61 1260 160 62 1261 166 74 1262 160 62 1263 64 75 1264 166 74 1265 67 6 1266 169 81 1267 19 78 1268 67 6 1269 159 61 1270 169 81 1271 159 61 1272 63 71 1273 169 81 1274 110 60 1275 172 86 1276 62 83 1277 110 60 1278 93 35 1279 172 86 1280 93 35 1281 45 87 1282 172 86 1283 156 58 1284 175 93 1285 60 90 1286 156 58 1287 157 59 1288 175 93 1289 157 59 1290 61 94 1291 175 93 1292 78 50 1293 178 100 1294 30 97 1295 78 50 1296 156 58 1297 178 100 1298 156 58 1299 60 90 1300 178 100 1301 107 57 1302 181 105 1303 59 102 1304 107 57 1305 66 56 1306 181 105 1307 66 56 1308 18 106 1309 181 105 1310 153 53 1311 184 111 1312 57 108 1313 153 53 1314 154 55 1315 184 111 1316 154 55 1317 58 112 1318 184 111 1319 124 54 1320 187 118 1321 28 115 1322 124 54 1323 153 53 1324 187 118 1325 153 53 1326 57 108 1327 187 118 1328 104 51 1329 190 123 1330 56 120 1331 104 51 1332 78 50 1333 190 123 1334 78 50 1335 30 97 1336 190 123 1337 150 46 1338 193 128 1339 54 125 1340 150 46 1341 151 48 1342 193 128 1343 151 48 1344 55 129 1345 193 128 1346 83 47 1347 196 133 1348 35 68 1349 83 47 1350 150 46 1351 196 133 1352 150 46 1353 54 125 1354 196 133 1355 101 44 1356 199 138 1357 53 135 1358 101 44 1359 79 43 1360 199 138 1361 79 43 1362 31 139 1363 199 138 1364 147 39 1365 202 145 1366 51 142 1367 147 39 1368 148 41 1369 202 145 1370 148 41 1371 52 146 1372 202 145 1373 129 40 1374 205 152 1375 33 149 1376 129 40 1377 147 39 1378 205 152 1379 147 39 1380 51 142 1381 205 152 1382 88 3 1383 208 157 1384 40 154 1385 88 3 1386 86 2 1387 208 157 1388 86 2 1389 38 158 1390 208 157 1391 128 34 1392 211 164 1393 32 161 1394 128 34 1395 125 37 1396 211 164 1397 125 37 1398 29 165 1399 211 164 1400 133 36 1401 214 171 1402 37 168 1403 133 36 1404 118 29 1405 214 171 1406 118 29 1407 22 172 1408 214 171 1409 93 35 1410 217 176 1411 45 87 1412 93 35 1413 128 34 1414 217 176 1415 128 34 1416 32 161 1417 217 176 1418 116 32 1419 220 181 1420 20 178 1421 116 32 1422 114 31 1423 220 181 1424 114 31 1425 18 106 1426 220 181 1427 118 29 1428 223 184 1429 22 172 1430 118 29 1431 142 28 1432 223 184 1433 142 28 1434 46 185 1435 223 184 1436 95 26 1437 226 191 1438 47 188 1439 95 26 1440 135 25 1441 226 191 1442 135 25 1443 39 192 1444 226 191 1445 92 23 1446 229 197 1447 44 194 1448 92 23 1449 90 22 1450 229 197 1451 90 22 1452 42 198 1453 229 197 1454 119 20 1455 232 204 1456 23 201 1457 119 20 1458 72 19 1459 232 204 1460 72 19 1461 24 205 1462 232 204 1463 82 17 1464 235 211 1465 34 208 1466 82 17 1467 144 16 1468 235 211 1469 144 16 1470 48 212 1471 235 211 1472 144 16 1473 238 216 1474 48 212 1475 144 16 1476 145 15 1477 238 216 1478 145 15 1479 49 217 1480 238 216 1481 91 1 1482 241 223 1483 43 220 1484 91 1 1485 74 4 1486 241 223 1487 74 4 1488 26 224 1489 241 223 1490 121 13 1491 244 230 1492 25 227 1493 121 13 1494 87 12 1495 244 230 1496 87 12 1497 39 192 1498 244 230 1499 98 10 1500 247 235 1501 50 232 1502 98 10 1503 89 9 1504 247 235 1505 89 9 1506 41 236 1507 247 235 1508 75 7 1509 250 242 1510 27 239 1511 75 7 1512 67 6 1513 250 242 1514 67 6 1515 19 78 1516 250 242 1517 74 4 1518 253 245 1519 26 224 1520 74 4 1521 88 3 1522 253 245 1523 88 3 1524 40 154 1525 253 245 1526 86 2 1527 256 248 1528 38 158 1529 86 2 1530 91 1 1531 256 248 1532 91 1 1533 43 220 1534 256 248 1535</p>
        </triangles>
      </mesh>
    </geometry>
  </library_geometries>
  <library_visual_scenes>
    <visual_scene id="Scene" name="Scene">
      <node id="Sphere" name="Sphere" type="NODE">
        <matrix sid="transform">1 0 0 0 0 1 1.62921e-7 0 0 -1.62921e-7 1 0 0 0 0 1</matrix>
        <instance_geometry url="#Sphere_001-mesh" name="Sphere"/>
      </node>
    </visual_scene>
  </library_visual_scenes>
  <scene>
    <instance_visual_scene url="#Scene"/>
  </scene>
</COLLADA>